I,1,Cog,3.75,14,4,40,12
O,2,Spring,2.3,7,5,20,C1
O,3,Screw,0.11,280,100,1000,CompanyLtd
O,4,part1,1.34,15,2,15,me
I,5,part2,1.23,11,1,11,1
O,6,p3,1.0,11,1,13,ebgef
I,7,p111,1.23,11,2,12,23
O,8,part10,1.51,5,2,19,none
I,10,part11,1.23,1,1,9,123
I,11,part12,1.89,3,1,8,124
P,1,Clock,7.45,7,2,20,1:2:3
P,2,product2,12.34,12,1,12,1:7:5
P,4,products4,11.0,2,1,10,5:8:7:11
